Applying sentiment analysis on IATF resolutions | CoMo Philippines
…
Sentiment analysis or opinion mining as it’s sometimes called is commonly used to assess affective states and subjective information such as opinion and attitudes of subjects of interest using language 1,2. The most common use case of sentiment analysis is on analysing product or service reviews that are made available on the internet but it is increasingly being used in research that aims to quantify public sentiment or opinion. In the advent of Web 2.0 and wide use of various social media platforms alongside much affordable access to increased computing power for most people, the use of sentiment analysis has increased and expanded to various fields such as stock and financial markets, elections, extreme events and disaster, medicine, and policy analysis 3.

Using the text data on IATF resolutions available from the covidphtext package we developed, we explore the use of sentiment analysis as one of several natural language processing (NLP), text analysis and computational linguistics techniques we plan to use for assessing Philippine government policy with regard to the response to the COVID-19 pandemic. The following workflow illustrates the process we use:

Figure 1: Sentiment analysis workflow

Step 1: Text data: covidphtext

As described in an earlier post, the covidphtext contains IATF resolutions text data structured for the purpose of text analysis. What we need to do now is to combine all resolutions into a single dataset. There is a convenience function in covidphtext that helps with this called combine_iatf and is used as follows:

allText <- covidphtext::combine_iatf(res = c(1:15, 17:46))

You will notice that we left out IATF Resolution No. 16.. This resolution is the only resolution that has been written in Filipino (see below).

## # A tibble: 87 x 7
##    linenumber text                       source type       id section date      
##         <int> <chr>                      <chr>  <chr>   <dbl> <chr>   <date>    
##  1          1 Inter-Agency Task Force f… IATF   resolu…    16 heading 2020-03-30
##  2          2 Additional Guidelines for… IATF   resolu…    16 heading 2020-03-30
##  3          3 March 30, 2020             IATF   resolu…    16 heading 2020-03-30
##  4          4 Resolution No. 16          IATF   resolu…    16 heading 2020-03-30
##  5          5 A. Ayon sa direktiba ng D… IATF   resolu…    16 operat… 2020-03-30
##  6          6 Autonomous Region in Musl… IATF   resolu…    16 operat… 2020-03-30
##  7          7 mga pasilidad na maaring … IATF   resolu…    16 operat… 2020-03-30
##  8          8 Inaatasan and DOT at iban… IATF   resolu…    16 operat… 2020-03-30
##  9          9 pagtukoy ng mga pasilidad… IATF   resolu…    16 operat… 2020-03-30
## 10         10 Ang mga natukoy na pasili… IATF   resolu…    16 operat… 2020-03-30
## # … with 77 more rows

Whilst it is possible to perform multi-lingual sentiment analysis, there is still no reliable sentiment lexicon (see following section for definition) for Filipino. Leaving out IATF Resolution No. 16, we arrive at the following concatenated IATF resolutions

## # A tibble: 5,774 x 7
##    linenumber text                       source type       id section date      
##         <int> <chr>                      <chr>  <chr>   <dbl> <chr>   <date>    
##  1          1 Republic of the Philippin… IATF   resolu…     1 heading 2020-01-28
##  2          2 Department of Health       IATF   resolu…     1 heading 2020-01-28
##  3          3 Office of the Secretary    IATF   resolu…     1 heading 2020-01-28
##  4          4 Inter-Agency Task Force f… IATF   resolu…     1 heading 2020-01-28
##  5          5 Emerging Infectious Disea… IATF   resolu…     1 heading 2020-01-28
##  6          6 28 January 2020            IATF   resolu…     1 heading 2020-01-28
##  7          7 Resolution No. 01          IATF   resolu…     1 heading 2020-01-28
##  8          8 Series of 2020             IATF   resolu…     1 heading 2020-01-28
##  9          9 Recommendations for the M… IATF   resolu…     1 heading 2020-01-28
## 10         10 Novel Coronavirus Situati… IATF   resolu…     1 <NA>    2020-01-28
## # … with 5,764 more rows
…
Preambulatory clauses - contains the preamble statements of the resolution i.e., the reasons for which the proposing body is addressing the issue and highlights past action done by the body or any other organisation regarding the issue. This is usually composed of a series of phrases that starts with the WHEREAS

Operative clauses - contains phrases/statements that offer solutions to the issues stated in the preamble.These phrases are action-oriented starting with a verb followed by the proposed solution. This section usually starts off with LET IT BE RESOLVED

The IATF Resolutions very much follow the aforementioned structure with the addition of a section stating the approval of the resolution and the signatories approving the resolution, and in later resolutions a section certifying that the resolution has been approved.

For purposes of sentiment analysis, the most meaningful sections to use will be the sections on preambulatory clauses and operative clauses. So, we further subset the concatenated text dataset of IATF Resolutions to only contain those that are preambulatory and operative clauses. You will notice that in the text data of each of the IATF Resolutions, these sections have been identified through the variable named section. We use this variable to filter the sections we need as follows:

allText <- allText %>%
  filter(section %in% c("preamble", "operative"))

which results in

## # A tibble: 4,048 x 7
##    linenumber text                        source type      id section date      
##         <int> <chr>                       <chr>  <chr>  <dbl> <chr>   <date>    
##  1         11 WHEREAS, Executive Order N… IATF   resol…     1 preamb… 2020-01-28
##  2         12 for the Management of Emer… IATF   resol…     1 preamb… 2020-01-28
##  3         13 WHEREAS, the Inter-agency … IATF   resol…     1 preamb… 2020-01-28
##  4         14 identify, screen, and assi… IATF   resol…     1 preamb… 2020-01-28
##  5         15 prevent and/or minimize th… IATF   resol…     1 preamb… 2020-01-28
##  6         16 as prevent and/or minimize… IATF   resol…     1 preamb… 2020-01-28
##  7         17 WHEREAS, on January 7, 202… IATF   resol…     1 preamb… 2020-01-28
##  8         18 the viral pneumonia outbre… IATF   resol…     1 preamb… 2020-01-28
##  9         19 (2019-nCoV) that has not b… IATF   resol…     1 preamb… 2020-01-28
## 10         20 WHEREAS, as of January 27,… IATF   resol…     1 preamb… 2020-01-28
## # … with 4,038 more rows
…
allText$text <- str_replace_all(string = allText$text, 
                                pattern = "COVID-19", 
                                replacement = "COVID19")

And then, anticipating that we will need some kind of grouping variable later in the analysis, we create a month variable within the concatenated text dataset that indicates the month when a specific resolution was issued. This was done as follows:

allText <- allText %>%
  mutate(month = factor(x = months(date),
                        levels = c("January", "February", "March", 
                                   "April", "May", "June")))

Our final working text dataset is this:

## # A tibble: 4,048 x 8
##    linenumber text                  source type      id section date       month
##         <int> <chr>                 <chr>  <chr>  <dbl> <chr>   <date>     <fct>
##  1         11 WHEREAS, Executive O… IATF   resol…     1 preamb… 2020-01-28 Janu…
##  2         12 for the Management o… IATF   resol…     1 preamb… 2020-01-28 Janu…
##  3         13 WHEREAS, the Inter-a… IATF   resol…     1 preamb… 2020-01-28 Janu…
##  4         14 identify, screen, an… IATF   resol…     1 preamb… 2020-01-28 Janu…
##  5         15 prevent and/or minim… IATF   resol…     1 preamb… 2020-01-28 Janu…
##  6         16 as prevent and/or mi… IATF   resol…     1 preamb… 2020-01-28 Janu…
##  7         17 WHEREAS, on January … IATF   resol…     1 preamb… 2020-01-28 Janu…
##  8         18 the viral pneumonia … IATF   resol…     1 preamb… 2020-01-28 Janu…
##  9         19 (2019-nCoV) that has… IATF   resol…     1 preamb… 2020-01-28 Janu…
## 10         20 WHEREAS, as of Janua… IATF   resol…     1 preamb… 2020-01-28 Janu…
## # … with 4,038 more rows

Step 2: Tokenise data

We are now ready to tokenise the data. Tokenisation of text data simply means structuring the text data into tokens – meaningful units of text such as a word, or groups of words, or a sentence, or a paragraph. For sentiment analysis, the most useful token will be a word mainly because the sentiment lexicons (see following section for definition) we plan to use are based on words.

We use the tidytext package and the function unnest_tokens within it to perform tokenisation using words as follows:

tidy_resolutions <- allText %>%
  unnest_tokens(output = word, input = text)

This results in the following dataset:

## # A tibble: 40,024 x 8
##    linenumber source type          id section  date       month   word     
##         <int> <chr>  <chr>      <dbl> <chr>    <date>     <fct>   <chr>    
##  1         11 IATF   resolution     1 preamble 2020-01-28 January whereas  
##  2         11 IATF   resolution     1 preamble 2020-01-28 January executive
##  3         11 IATF   resolution     1 preamble 2020-01-28 January order    
##  4         11 IATF   resolution     1 preamble 2020-01-28 January no       
##  5         11 IATF   resolution     1 preamble 2020-01-28 January 168      
##  6         11 IATF   resolution     1 preamble 2020-01-28 January s        
##  7         11 IATF   resolution     1 preamble 2020-01-28 January 2014     
##  8         11 IATF   resolution     1 preamble 2020-01-28 January creates  
##  9         11 IATF   resolution     1 preamble 2020-01-28 January the      
## 10         11 IATF   resolution     1 preamble 2020-01-28 January inter    
## # … with 40,014 more rows
…
AFINN - from Finn Årup Nielsen which is a lexicon that assigns a score to words from -5 to +5 with negative scores indicating negative sentiments and positive scores indicating positive sentiments;

bing - from Bing Liu and collaborators which is a lexicon that simply classifies words into either negative or positive categories; and,

nrc - from Saif Mohammad and Peter Turney which is a lexicon that groups words into categories of positive, negative, anger, anticipation, disgust, fear, joy, sadness, surprise, or trust

We apply the sentiment lexicon from Bing and colleagues to our tokenised data as follows:

resolution_sentiment <- tidy_resolutions %>%
  inner_join(get_sentiments("bing"))

What we are basically doing here is to match the words in our tokenised data with the words in the sentiment lexicion from Bing and colleagues to get the sentiment value of positive or negative for our tokenised data. This results in the following:

## # A tibble: 1,303 x 9
##    linenumber source type       id section  date       month  word     sentiment
##         <int> <chr>  <chr>   <dbl> <chr>    <date>     <fct>  <chr>    <chr>    
##  1         14 IATF   resolu…     1 preamble 2020-01-28 Janua… infected negative 
##  2         15 IATF   resolu…     1 preamble 2020-01-28 Janua… well     positive 
##  3         18 IATF   resolu…     1 preamble 2020-01-28 Janua… outbreak negative 
##  4         21 IATF   resolu…     1 preamble 2020-01-28 Janua… risk     negative 
##  5         21 IATF   resolu…     1 preamble 2020-01-28 Janua… infecti… negative 
##  6         25 IATF   resolu…     1 operati… 2020-01-28 Janua… recomme… positive 
##  7         26 IATF   resolu…     1 operati… 2020-01-28 Janua… support  positive 
##  8         26 IATF   resolu…     1 operati… 2020-01-28 Janua… accurate positive 
##  9         27 IATF   resolu…     1 operati… 2020-01-28 Janua… timely   positive 
## 10         27 IATF   resolu…     1 operati… 2020-01-28 Janua… support  positive 
## # … with 1,293 more rows
…
