Creating text data from IATF resolutions for use in text analysis | CoMo Philippines
…
The resolutions are available either from the DoH website or from The Official Gazette website. There are two key differences between these two sources. First, the DoH only provides resolutions starting from March 2020 at Resolution No. 9. Second, the DoH uploads the most recent resolutions a little bit later than The Official Gazette.

We automated the bulk download of all available resolutions from either sources in R by first creating a function that reads the HTML page/s for the resolutions and extracting the download links/URLs for each available resolution. Then, using these links, we created another function that downloads the PDFs into a temporary directory which can then be accessed for the next step of the workflow.

Extracting download links/URLs of resolutions

To extract download links/URLs of resolutions from either sources, we created wrappers around web scraping functions in the rvest package.

For the resolutions in the DoH website, we created the function get_iatf_links. This function only requires a single argument termed base which is the URL of the DoH webpage for IATF resolutions. The current URL for this is at https://www.doh.gov.ph/COVID-19/IATF-Resolutions and this is what is used as default value for base. So, to get the links/URLs for the resolutions found in the DoH website, we use:

get_iatf_links()

which gives the following:

## # A tibble: 41 x 7
##       id title              date       source type  url               checked   
##    <dbl> <chr>              <date>     <chr>  <chr> <chr>             <date>    
##  1     9 Recommendations f… 2020-03-03 IATF   reso… https://doh.gov.… 2020-06-17
##  2    10 Recommendations f… 2020-03-09 IATF   reso… https://doh.gov.… 2020-06-17
##  3    11 Recommendations f… 2020-03-12 IATF   reso… https://doh.gov.… 2020-06-17
##  4    12 Recommendations f… 2020-03-13 IATF   reso… https://doh.gov.… 2020-06-17
##  5    13 Recommendations f… 2020-03-17 IATF   reso… https://doh.gov.… 2020-06-17
##  6    14 Resolutions Relat… 2020-03-20 IATF   reso… https://doh.gov.… 2020-06-17
##  7    15 Resolutions Relat… 2020-03-25 IATF   reso… https://doh.gov.… 2020-06-17
##  8    16 Additional Guidel… 2020-03-30 IATF   reso… https://doh.gov.… 2020-06-17
##  9    17 Recommendations R… 2020-03-30 IATF   reso… https://doh.gov.… 2020-06-17
## 10    18 Recommendations R… 2020-04-01 IATF   reso… https://doh.gov.… 2020-06-17
## # … with 31 more rows

The result is a tibble with 7 columns and the number of rows equal to the number of resolutions available from the DoH website on the day the output was produced. The column named checked in the output indicates when it was produced. The number of rows of the output may change between two calls to this function as newer resolution/s may have been uploaded from the time the first call was made to the time the second call was made.

For the resolutions in The Official Gazette, we created the get_iatf_gazette function. As with the get_iatf_links function, this requires the URL to the IATF resolutions webpage in The Official Gazette which is set at https://www.officialgazette.gov.ph/section/laws/other-issuances/inter-agency-task-force-for-the-management-of-emerging-infectious-diseases-resolutions/. However, a second argument named pages is required. Unlike the DoH page that has all the download links to the resolutions available on a single page, The Official Gazette uses pagination to split the information on download links into multiple pages. To be able to get the links of all the resolutions, we would need to supply a vector of the page numbers of all the pages that contains the download links. So, to get the links/URLs for all available resolutions found in the The Official Gazette website, we use:

get_iatf_gazette(pages = 1:6)

after determining from the website that the download links are contained in 6 pages.

This gives the following result:

## # A tibble: 53 x 7
##       id title              date       source type  url               checked   
##    <dbl> <chr>              <date>     <chr>  <chr> <chr>             <date>    
##  1    46 RESOLUTION NO. 46… 2020-06-15 IATF   reso… https://www.offi… 2020-06-17
##  2    46 RESOLUTION NO. 46… 2020-06-15 IATF   reso… https://www.offi… 2020-06-17
##  3    45 RESOLUTION NO. 45… 2020-06-10 IATF   reso… https://www.offi… 2020-06-17
##  4    44 RESOLUTION NO. 44… 2020-06-08 IATF   reso… https://www.offi… 2020-06-17
##  5    NA OMNIBUS GUIDELINE… 2020-06-03 IATF   reso… https://www.offi… 2020-06-17
##  6    43 RESOLUTION NO. 43… 2020-06-03 IATF   reso… https://www.offi… 2020-06-17
##  7    42 RESOLUTION NO. 42… 2020-06-01 IATF   reso… https://www.offi… 2020-06-17
##  8    41 RESOLUTION NO. 41… 2020-05-29 IATF   reso… https://www.offi… 2020-06-17
##  9    40 RESOLUTION NO. 40… 2020-05-27 IATF   reso… https://www.offi… 2020-06-17
## 10    NA OMNIBUS GUIDELINE… 2020-05-22 IATF   reso… https://www.offi… 2020-06-17
## # … with 43 more rows
…
## Convert data.frame to tibble
iatfResolution29 <- tibble::tibble(y)

This results in the following text data:

## # A tibble: 105 x 7
##    linenumber text                        source type      id section date      
##         <int> <chr>                       <chr>  <chr>  <dbl> <chr>   <date>    
##  1          1 Republic of the Philippines IATF   resol…    29 heading 2020-04-27
##  2          2 Inter-Agency Task Force     IATF   resol…    29 heading 2020-04-27
##  3          3 for the Management of Emer… IATF   resol…    29 heading 2020-04-27
##  4          4 Resolution No. 29           IATF   resol…    29 heading 2020-04-27
##  5          5 Series of 2020              IATF   resol…    29 heading 2020-04-27
##  6          6 27 April 2020               IATF   resol…    29 heading 2020-04-27
##  7          7 Recommendations relative t… IATF   resol…    29 heading 2020-04-27
##  8          8 of the coronavirus disease… IATF   resol…    29 heading 2020-04-27
##  9          9 WHEREAS, on March 16, 2020… IATF   resol…    29 preamb… 2020-04-27
## 10         10 country, the President pla… IATF   resol…    29 preamb… 2020-04-27
## # … with 95 more rows
…
