Impact of prediction models on government policy and response to the COVID-19 pandemic in the Philippines | CoMo Philippines
…
Figure 11: Highest tf-idf words in each of the IATF resolutions

Relationship between words

Analysing bigrams

## # A tibble: 10,161 x 2
##    bigram                   n
##    <chr>                <int>
##  1 of the                 587
##  2 department of          441
##  3 in the                 211
##  4 secretary department   205
##  5 the iatf               187
##  6 community quarantine   137
##  7 whereas on             137
##  8 to the                 136
##  9 the department         130
## 10 shall be               129
## # … with 10,151 more rows

## # A tibble: 3,135 x 3
##    word1          word2          n
##    <chr>          <chr>      <int>
##  1 secretary      department   205
##  2 community      quarantine   137
##  3 task           force        115
##  4 enhanced       community    108
##  5 agency         task         101
##  6 inter          agency       100
##  7 <NA>           <NA>          85
##  8 local          government    57
##  9 undersecretary department    48
## 10 assistant      secretary     43
## # … with 3,125 more rows

## # A tibble: 8,035 x 7
##    linenumber source type          id date       month    bigram           
##         <int> <chr>  <chr>      <dbl> <date>     <fct>    <chr>            
##  1          1 IATF   resolution     1 2020-01-28 January  2014 creates     
##  2          1 IATF   resolution     1 2020-01-28 January  inter agency     
##  3          1 IATF   resolution     1 2020-01-28 January  agency task      
##  4          1 IATF   resolution     1 2020-01-28 January  task force       
##  5          1 IATF   resolution     2 2020-01-31 January  section 15       
##  6          1 IATF   resolution     2 2020-01-31 January  15 article       
##  7          1 IATF   resolution     2 2020-01-31 January  article ii       
##  8          1 IATF   resolution     2 2020-01-31 January  1987 constitution
##  9          1 IATF   resolution     3 2020-02-06 February threat posed     
## 10          1 IATF   resolution     3 2020-02-06 February 2019 ncov        
## # … with 8,025 more rows
…
